tools/.Xil/Vivado-22775-kortiq1/hw_ila_data_1/zip_work/waveform.vcd
$date
        2018-Jun-04 11:13:04
$end
$version
        Vivado v2017.4 (64-bit)
$end
$timescale
        1ps
$end
$scope module dut $end
$var reg 299 " top_i/aiscale/cfg_tdata [298:0] $end
$var reg 373 3$ top_i/aiscale/cfg_tdata_1 [672:300] $end
$var reg 1 0( top_i/aiscale/cfg_tready $end
$var reg 1 1( top_i/aiscale/cfg_tvalid $end
$var reg 69 2( top_i/aiscale/dout0_tdata [68:0] $end
$var reg 1 w( top_i/aiscale/dout0_tready $end
$var reg 1 x( top_i/aiscale/dout0_tvalid $end
$var reg 32 y( top_i/aiscale/dout1_tdata [63:32] $end
$var reg 1 ;) top_i/aiscale/dout1_tready $end
$var reg 1 <) top_i/aiscale/dout1_tvalid $end
$var reg 2 =) top_i/aiscale/dout2_tdata_1 [2:1] $end
$var reg 32 ?) top_i/aiscale/dout2_tdata [63:32] $end
$var reg 1 _) top_i/aiscale/dout2_tready $end
$var reg 1 `) top_i/aiscale/dout2_tvalid $end
$var reg 15 a) top_i/aiscale/dout3_tdata_1 [15:1] $end
$var reg 32 p) top_i/aiscale/dout3_tdata [63:32] $end
$var reg 1 2* top_i/aiscale/dout3_tready $end
$var reg 1 3* top_i/aiscale/dout3_tvalid $end
$var reg 1 4* top_i/aiscale/inst/aiscale_i/aiscale_cfg_i/handshake $end
$var reg 1 5* top_i/aiscale/inst/aiscale_i/aiscale_cfg_i/local_rst $end
$var reg 64 6* top_i/aiscale/inst/aiscale_i/aiscale_cfg_i/others_dout\\.data_1 [154:91] $end
$var reg 9 v* top_i/aiscale/inst/aiscale_i/aiscale_cfg_i/others_dout\\.data_2 [196:188] $end
$var reg 32 !+ top_i/aiscale/inst/aiscale_i/aiscale_cfg_i/others_dout\\.data_3 [289:258] $end
$var reg 97 A+ top_i/aiscale/inst/aiscale_i/aiscale_cfg_i/others_dout\\.data [387:291] $end
$var reg 1 D, top_i/aiscale/inst/aiscale_i/aiscale_cfg_i/others_dout\\.dready $end
$var reg 1 E, top_i/aiscale/inst/aiscale_i/aiscale_cfg_i/others_dout\\.dvalid $end
$var reg 3 F, top_i/aiscale/inst/aiscale_i/aiscale_cfg_i/state_reg [2:0] $end
$var reg 48 I, top_i/aiscale/inst/aiscale_i/aiscale_cfg_i/wm_dout\\.data_1 [47:0] $end
$var reg 1 y, top_i/aiscale/inst/aiscale_i/aiscale_cfg_i/wm_dout\\.data_2 $end
$var reg 1 z, top_i/aiscale/inst/aiscale_i/aiscale_cfg_i/wm_dout\\.data $end
$var reg 1 {, top_i/aiscale/inst/aiscale_i/aiscale_cfg_i/wm_dout\\.dready $end
$var reg 1 |, top_i/aiscale/inst/aiscale_i/aiscale_cfg_i/wm_dout\\.dvalid $end
$var reg 31 }, top_i/aiscale/inst/aiscale_i/rcu_wrap_i/bias_wm\\.data_1 [30:0] $end
$var reg 31 >- top_i/aiscale/inst/aiscale_i/rcu_wrap_i/bias_wm\\.data_2 [62:32] $end
$var reg 31 ]- top_i/aiscale/inst/aiscale_i/rcu_wrap_i/bias_wm\\.data_3 [94:64] $end
$var reg 31 |- top_i/aiscale/inst/aiscale_i/rcu_wrap_i/bias_wm\\.data_4 [126:96] $end
$var reg 2 =. top_i/aiscale/inst/aiscale_i/rcu_wrap_i/bias_wm\\.data [129:128] $end
$var reg 64 ?. top_i/aiscale/inst/aiscale_i/rcu_wrap_i/brick_combiner_if_s\\.data [63:0] $end
$var reg 1 !/ top_i/aiscale/inst/aiscale_i/rcu_wrap_i/brick_combiner_if_s\\.dready $end
$var reg 1 "/ top_i/aiscale/inst/aiscale_i/rcu_wrap_i/brick_combiner_if_s\\.dvalid $end
$var reg 64 #/ top_i/aiscale/inst/aiscale_i/rcu_wrap_i/nzi_im\\.data_1 [63:0] $end
$var reg 3 c/ top_i/aiscale/inst/aiscale_i/rcu_wrap_i/nzi_im\\.data [69:67] $end
$var reg 1 f/ top_i/aiscale/inst/aiscale_i/rcu_wrap_i/nzi_im\\.dready $end
$var reg 1 g/ top_i/aiscale/inst/aiscale_i/rcu_wrap_i/nzi_im\\.dvalid $end
$var reg 66 h/ top_i/aiscale/inst/aiscale_i/rcu_wrap_i/nzi_wm\\.data [65:0] $end
$var reg 1 L0 top_i/aiscale/inst/aiscale_i/rcu_wrap_i/nzi_wm\\.dready $end
$var reg 1 M0 top_i/aiscale/inst/aiscale_i/rcu_wrap_i/nzi_wm\\.dvalid $end
$var reg 70 N0 top_i/aiscale/inst/aiscale_i/rcu_wrap_i/nzv_im\\.data [69:0] $end
$var reg 1 61 top_i/aiscale/inst/aiscale_i/rcu_wrap_i/nzv_im\\.dready $end
$var reg 1 71 top_i/aiscale/inst/aiscale_i/rcu_wrap_i/nzv_im\\.dvalid $end
$var reg 66 81 top_i/aiscale/inst/aiscale_i/rcu_wrap_i/nzv_wm\\.data [65:0] $end
$var reg 1 z1 top_i/aiscale/inst/aiscale_i/rcu_wrap_i/nzv_wm\\.dready $end
$var reg 1 {1 top_i/aiscale/inst/aiscale_i/rcu_wrap_i/nzv_wm\\.dvalid $end
$var reg 17 |1 top_i/aiscale/inst/aiscale_i/rcu_wrap_i/rcu_top_if_s\\.data [16:0] $end
$var reg 1 /2 top_i/aiscale/inst/aiscale_i/rcu_wrap_i/rcu_top_if_s\\.dready $end
$var reg 1 02 top_i/aiscale/inst/aiscale_i/rcu_wrap_i/rcu_top_if_s\\.dvalid $end
$var reg 65 12 top_i/aiscale/is_din_tdata [64:0] $end
$var reg 1 r2 top_i/aiscale/is_din_tready $end
$var reg 1 s2 top_i/aiscale/is_din_tvalid $end
$var reg 16 t2 top_i/aiscale/nnzv_os_tdata [15:0] $end
$var reg 1 &3 top_i/aiscale/nnzv_os_tready $end
$var reg 1 '3 top_i/aiscale/nnzv_os_tvalid $end
$var reg 1 (3 _TRIGGER $end
$var reg 1 )3 _WINDOW $end
$var reg 1 *3 _GAP $end
$upscope $end
$enddefinitions $end
#0
$dumpvars
b10001000100011000100000001000000000001000000001000000000011111000000001111100000000001000000000000000000000100000000100000000000001100110100000000000011000110000100101010000000000000101101100001001010100000000000000100111110010010101000000000000000010000000000010000000000000000011001101000000000 "
b1000000000100010000000011000001110000000000000000000000110000100000000000000001000000001100001000000000000000000000000000000000000000000000000000000001000000011000011111111111111100000000000000000000000000000001000100000000000000000000000000000010001000001100000101000000000000000000000011000001100000000000000000000000000010000 3$
00(
11(
b11110000000000000000000000000000000000000000000000000000000000000000 2(
1w(
0x(
b110000100000000000000001000000 y(
1;)
0<)
b10 =)
b0 ?)
1_)
0`)
b1000000 a)
b0 p)
02*
03*
04*
05*
b11000001010000000000000000000000110000011000000000000000000000 6*
b100000 v*
b0 !+
b11000001110000000000000000000000110000100000000000000001000000001100001000000000000000000000000 A+
0D,
1E,
b101 F,
b0 I,
1y,
1z,
0{,
0|,
b11001110001100000000 },
b111100011000000000 >-
b11111010000000000 ]-
b10000011111000000000 |-
b1 =.
b0 ?.
0!/
0"/
b1010110110011111001100110000011111111010100011111011000110111100 #/
b0 c/
1f/
0g/
b100000111110000000011111010000000011110001100000110011100011 h/
1L0
0M0
b1000000000000000000000000000000000000000010011111110000001100101001 N0
161
071
b0 81
1z1
0{1
b0 |1
1/2
002
b1000001001000000101001000100001010011011110000100000100011 12
1r2
1s2
b110 t2
0&3
0'3
0(3
1)3
0*3
$end
#1
b10000010001100000000 },
b10100110111100000000 >-
b101001000100000000 ]-
b100000100100000000 |-
b1000001001000000101001000100001010011011110000100000100011 h/
b10000001100100100000001001001000000000101001100100000001111011110 12
#2
b111101111000000000 },
b1010011001000000000 >-
b1001001000000000000 ]-
b110010010000000000 |-
b1100100100000001001001000000000101001100100000001111011110 h/
b0 12
0s2
#3
12*
b10000010001100000000 },
b10100110111100000000 >-
b101001000100000000 ]-
b100000100100000000 |-
b1000001001000000101001000100001010011011110000100000100011 h/
#4
b110000000000001100000001010000101110100000001100010101010010 12
1s2
#5
b110001010101001000000000 },
b1011101000000000000000 >-
b1100000001010000000000 ]-
b11000000000000000000 |-
b110000000000001100000001010000101110100000001100010101010010 h/
b100000001000000100001100000000110100110100000011100000111 12
#6
b1110000011100000000 },
b1101001101000000000 >-
b100001100000000000 ]-
b10000000100000000 |-
b100000001000000100001100000000110100110100000011100000111 h/
b1100111100000000101101101100001001010010000000000101100010 12
#7
b10110001000000000 },
b10010100100000000000 >-
b101101101100000000 ]-
b110011110000000000 |-
b1100111100000000101101101100001001010010000000000101100010 h/
b11110001010000010010001010100000111011110110000001000001100 12
#8
b100000110000000000 },
b1110111101100000000 >-
b10010001010100000000 ]-
b1111000101000000000 |-
b11110001010000010010001010100000111011110110000001000001100 h/
b100011110001000000010000001100000111110010010000101100000011 12
#9
b10110000001100000000 },
b1111100100100000000 >-
b10000001100000000 ]-
b10001111000100000000 |-
b100011110001000000010000001100000111110010010000101100000011 h/
b10000000000000000000000000000000000000000010011000000001010001000 12
#10
b101000100000000000 },
b100110000000000 >-
b0 ]-
b0 |-
b10011000000001010001000 h/
b0 12
0s2
#11
b10110000001100000000 },
b1111100100100000000 >-
b10000001100000000 ]-
b10001111000100000000 |-
b100011110001000000010000001100000111110010010000101100000011 h/
#12
b10000000100101000000001000100101010100000001101010001010000 12
1s2
#13
b110101000101000000000000 },
b1010101000000000000000 >-
b101000000001000100000000 ]-
b1000000010000000000 |-
b10000000100101000000001000100101010100000001101010001010000 h/
b100101001000000000011001010100000011111110000000011100001110 12
#14
b1110000111000000000 },
b111111100000000000 >-
b11001010100000000 ]-
b10010100100000000000 |-
b100101001000000000011001010100000011111110000000011100001110 h/
b1111010001000001010011101000001001101110000000001110001111 12
#15
b111000111100000000 },
b10011011100000000000 >-
b1010011101000000000 ]-
b111101000100000000 |-
b1111010001000001010011101000001001101110000000001110001111 h/
b100001011001000000110001011100000110000001010000011000100100 12
#16
b1100010010000000000 },
b1100000010100000000 >-
b110001011100000000 ]-
b10000101100100000000 |-
b100001011001000000110001011100000110000001010000011000100100 h/
b10000110001010000000000000000011000000000100111100000010100011001 12
#17
b1010001100100000000 },
b1001111000000000 >-
b11000000000 ]-
b11000101000000000000 |-
b110001010000000000000000011000000000100111100000010100011001 h/
b0 12
0s2
#18
b1100010010000000000 },
b1100000010100000000 >-
b110001011100000000 ]-
b10000101100100000000 |-
b100001011001000000110001011100000110000001010000011000100100 h/
#19
b1110000000100011100000001010100101010100000001100010000000100 12
1s2
#20
b110001000000010000000000 },
b1010101000000000000000 >-
b11100000001010100000000 ]-
b111000000010000000000 |-
b1110000000100011100000001010100101010100000001100010000000100 h/
b11000011000001100101011000000111101001110000100101101001 12
#21
b10010110100100000000 },
b1111010011100000000 >-
b1100101011000000000 ]-
b1100001100000000 |-
b11000011000001100101011000000111101001110000100101101001 h/
b1001101100000001100101110100000101100001110000001010101010 12
#22
b101010101000000000 },
b1011000011100000000 >-
b1100101110100000000 ]-
b100110110000000000 |-
b1001101100000001100101110100000101100001110000001010101010 h/
b10011001110000000100010000100000100011110110000000110110001 12
#23
b11011000100000000 },
b1000111101100000000 >-
b100010000100000000 ]-
b1001100111000000000 |-
b10011001110000000100010000100000100011110110000000110110001 h/
b1011110000000000101110101000000010010010110000000001001100 12
#24
b100110000000000 },
b100100101100000000 >-
b101110101000000000 ]-
b101111000000000000 |-
b1011110000000000101110101000000010010010110000000001001100 h/
b10000000000000000000000000000000000000011000101100000000000111111 12
#25
b11111100000000 },
b110001011000000000 >-
b0 ]-
b0 |-
b11000101100000000000111111 h/
b0 12
0s2
#26
b100110000000000 },
b100100101100000000 >-
b101110101000000000 ]-
b101111000000000000 |-
b1011110000000000101110101000000010010010110000000001001100 h/
#27
b1100000000000011100000001000000001010000000001100000000000100 12
1s2
#28
b110000000000010000000000 },
b10100000000000000000 >-
b11100000001000000000000 ]-
b110000000000000000000 |-
b1100000000000011100000001000000001010000000001100000000000100 h/
b10000110000000000101010110000000010010101010000010010010111 12
#29
b1001001011100000000 },
b100101010100000000 >-
b101010110000000000 ]-
b1000011000000000000 |-
b10000110000000000101010110000000010010101010000010010010111 h/
b1001001100000000111001100100000000000110110000010110000100 12
#30
b1011000010000000000 },
b1101100000000 >-
b111001100100000000 ]-
b100100110000000000 |-
b1001001100000000111001100100000000000110110000010110000100 h/
b10000000000000000000000101110011000000010111011110000010101001001 12
#31
b1010100100100000000 },
b101110111100000000 >-
b101110011000000000 ]-
b0 |-
b101110011000000010111011110000010101001001 h/
b0 12
0s2
#32
b1011000010000000000 },
b1101100000000 >-
b111001100100000000 ]-
b100100110000000000 |-
b1001001100000000111001100100000000000110110000010110000100 h/
#33
b1100000000010001100000011000000001010000100001100000000000100 12
1s2
#34
b110000000000010000000000 },
b10100001000000000000 >-
b1100000011000000000000 ]-
b110000000001000000000 |-
b1100000000010001100000011000000001010000100001100000000000100 h/
b10000010010000000101000001100000010000101100000011010110101 12
#35
b1101011010100000000 },
b100001011000000000 >-
b101000001100000000 ]-
b1000001001000000000 |-
b10000010010000000101000001100000010000101100000011010110101 h/
b1000010001000000111111010000000001000100100000011001111110 12
#36
b1100111111000000000 },
b10001001000000000 >-
b111111010000000000 ]-
b100001000100000000 |-
b1000010001000000111111010000000001000100100000011001111110 h/
b110111110000001000011011100000100011010000000000001111001 12
#37
b111100100000000 },
b1000110100000000000 >-
b1000011011100000000 ]-
b11011111000000000 |-
b110111110000001000011011100000100011010000000000001111001 h/
b10000000000000000000000000000000000000000000000000000000010001111 12
#38
b1000111100000000 },
b0 >-
b0 ]-
b0 |-
b10001111 h/
b0 12
0s2
#39
b111100100000000 },
b1000110100000000000 >-
b1000011011100000000 ]-
b11011111000000000 |-
b110111110000001000011011100000100011010000000000001111001 h/
#40
b1000010010010011100000011010000001010100000001100010000000000 12
1s2
#41
b110001000000000000000000 },
b10101000000000000000 >-
b11100000011010000000000 ]-
b100001001001000000000 |-
b1000010010010011100000011010000001010100000001100010000000000 h/
b111100101000000101000011100000101110101010000100001100010 12
#42
b10000110001000000000 },
b1011101010100000000 >-
b101000011100000000 ]-
b11110010100000000 |-
b111100101000000101000011100000101110101010000100001100010 h/
b100011010100000000010100001000000010101101100000010001101110 12
#43
b1000110111000000000 },
b101011011000000000 >-
b10100001000000000 ]-
b10001101010000000000 |-
b100011010100000000010100001000000010101101100000010001101110 h/
b11000000111101011100000010001010000000000111011100 12
#44
b11101110000000000 },
b100010100000000000 >-
b111101011100000000 ]-
b1100000000 |-
b11000000111101011100000010001010000000000111011100 h/
b10000001101001011000001100101100000000011011010100000000011101101 12
#45
b1110110100000000 },
b110110101000000000 >-
b1100101100000000000 ]-
b110100101100000000 |-
b1110100000010101101001000000100101010100000010110000101011101001 #/
b10 c/
1g/
b1101001011000001100101100000000011011010100000000011101101 h/
b0 12
0s2
#46
b11101110000000000 },
b100010100000000000 >-
b111101011100000000 ]-
b1100000000 |-
b0 c/
0g/
b11000000111101011100000010001010000000000111011100 h/
#47
b11110110100001000000100010101101010100000101110000010110100101 #/
b10 c/
1g/
b1001000000010001100001011000010001010100001011100010101010000 12
1s2
#48
b110001010101000000000000 },
b100010101000010100000000 >-
b1100001011000000000000 ]-
b100100000001000000000 |-
0g/
b1001000000010001100001011000010001010100001011100010101010000 h/
b11011111000000010110010000000110010111110000011000110000 12
#49
b1100011000000000000 },
b1100101111100000000 >-
b10110010000000000 ]-
b1101111100000000 |-
b1111110000110001000001000100100001110101000011000010001100101001 #/
1g/
b11011111000000010110010000000110010111110000011000110000 h/
b1000000000000001000000001001101101100000000100110010000000100010110 N0
171
b100110000000000011101111100000000000101010000001011100001 12
#50
b1000000001001101101100000000100110010000000100010110 ?.
1!/
1"/
0g/
b1000000000100010010000000111100101000000011010100000000000010100010 N0
b1011000000000011110000000100100111010000001111110000 12
0r2
1(3
#51
b100010010000000111100101000000011010100000000000010100010 ?.
b1100100010000011100101000100100101110100000000000010001111100001 #/
1g/
b1000000001100010000000000110000000100000011011001110000001110000100 N0
#52
b1100010000000000110000000100000011011001110000001110000100 ?.
0g/
b1000000000101010100000000001110110000000010010100010000000101110101 N0
#53
b101010100000000001110110000000010010100010000000101110101 ?.
b1000110010000011000101000000100101000100010001000000001100100000 #/
1g/
b1000000001011101100000001001010001000000001101011110000110001110001 N0
#54
b1011101100000001001010001000000001101011110000110001110001 ?.
0g/
b1000000000001101000000000000110011000000010101111100000001101111000 N0
#55
b1101000000000000110011000000010101111100000001101111000 ?.
b1010010011010001100101000000100101000101000000100000001011101010 #/
1g/
b10010000000000000000000000000000000000000000000000000000001111111110 N0
#56
b1111111110 ?.
0!/
0"/
0g/
b1000000000000000000000000000000000000000000000000000000001111111110 N0
071
#57
b1100110000000101011111000000011011110000000001111111110 ?.
b1010100001100001100100000000100001110101000010100000001011101010 #/
1g/
b1000000001011000101000000111001011100000010010000010000001000001010 N0
171
#58
b1110010111000000100100000100000010000010100000001111111110 ?.
1!/
1"/
0g/
b1000000010100110010000010000001001100001000000101100000010111011110 N0
#59
b100000010011000010000001011000000101110111100000001011000101 ?.
b1000000010010000001000001010110100000000010001110000000001101101011 N0
#60
b10101101000000000100011100000000011011010110000010100110010 ?.
b1110000101100001000001000100100001010100000010110010001110101101 #/
1g/
b1000000100010101000000000110110100100000001010000100000001001111001 N0
#61
b1101101001000000010100001000000010011110010000010010000001 ?.
0g/
b1000000011000111110000001010100010100000001000010110000000011010110 N0
#62
b10101000101000000010000101100000000110101100000100010101000 ?.
b1000000010100011100000000010101100000000001011100110000011100010100 N0
#63
b101011000000000010111001100000111000101000000011000111110 ?.
b10100000000000000000000000000000000000000011100001000000001011001100 N0
#64
b111000010000000010110011000000010100011100 ?.
0!/
0"/
b1000000000000000000000000000000000000000011100001000000001011001100 N0
071
#65
b11100010100000000111000010000000010110011000000010100011100 ?.
b1000000000111101001000000100111001100000001101111110000000010011101 N0
171
#66
b10011101000000111000010000000010110011000000010100011100 ?.
1!/
1"/
b1000000000001001100000001111010100000000010111011000000001001111111 N0
#67
b1001111111000000011110100100000010011100110000000110111111 ?.
b1000000001011100001000000011110000100000010110001100000011000010011 N0
#68
b11000010011000000000100110000000111101010000000001011101100 ?.
b1001000000001011100010000100100110000001001010000110000001001000 #/
1g/
b1000000110001101000000000110100110100000011101111100000100110000000 N0
#69
b100110000000000000101110000100000001111000010000001011000110 ?.
0g/
b1000000011100100010000000000101111100001000010101000000001101011111 N0
#70
b1101011111000011000110100000000011010011010000001110111110 ?.
b1000000010010011111000001110001000100000001111100010000010001111000 N0
#71
b10001111000000001110010001000000000010111110000100001010100 ?.
b10010000000000000000000000000000000000000000000000000000100110010110 N0
#72
b100110010110000001001001111100000111000100010000000111110001 ?.
b1000000000000000000000000000000000000000000000000000000100110010110 N0
071
#73
b10010011111000001110001000100000001111100010000010001111000 ?.
0!/
0"/
b1000000001000000100000001000010001000000101111001010000001110100000 N0
171
#74
b1000000100000001000010001000000101111001010000001110100000 ?.
1!/
1"/
b1000000010011000001000000001000110100001000111110100000010100111100 N0
#75
b10011000001000000001000110100001000111110100000010100111100 ?.
b1000000010110011101000001001010010100000110010101110000000110011100 N0
#76
b10110011101000001001010010100000110010101110000000110011100 ?.
b1101100110000001100000000100100101100001001011010010000001101101 #/
1g/
b1000001001110010111000000000110100100001000011100000000000011100101 N0
#77
b1001110010111000000000110100100001000011100000000000011100101 ?.
0g/
b1000000101001100101000000001010111100000001001011100000010101011011 N0
#78
b101001100101000000001010111100000001001011100000010101011011 ?.
b10110000000000000000000001001111001000000011011100010000010100110011 N0
#79
b1001111001000000011011100010000010100110011 ?.
0!/
0"/
b1000000000000000000000001001111001000000011011100010000010100110011 N0
071
#80
b10101011011000001001111001000000011011100010000010100110011 ?.
b1000000000011010010000000100111000000000001111010110000011011000000 N0
171
#81
b11011000000000001001111001000000011011100010000010100110011 ?.
1!/
1"/
b1000000010000000010000001011010110100000000110011010000000111000101 N0
#82
b111000101000000001101001000000010011100000000000111101011 ?.
b1000000011000101101000000100000101100001110110111110000101001011000 N0
#83
b101001011000000001000000001000000101101011010000000011001101 ?.
b1101100010001011000001000100100101000001000011010110101001100100 #/
1g/
b1000000001010110110000001001010001100000010011101100000100100110000 N0
#84
b100100110000000001100010110100000010000010110000111011011111 ?.
0g/
b10010000000000000000000000000000000000000000000000000000010101110111 N0
#85
b10101110111000000101011011000000100101000110000001001110110 ?.
b1000000000000000000000000000000000000000000000000000000010101110111 N0
071
#86
b1010110110000001001010001100000010011101100000100100110000 ?.
0!/
0"/
b1000000000011001000000001000011001000000000101001110000010001001101 N0
171
#87
b11001000000001000011001000000000101001110000010001001101 ?.
1!/
1"/
b1000000010101110110000000001010001100000001011000100000101100010110 N0
#88
b10101110110000000001010001100000001011000100000101100010110 ?.
b1000000010000000100000001010001011000000010110100100000001010001010 N0
#89
b10000000100000001010001011000000010110100100000001010001010 ?.
b1100001000010011010111000000100110000001001000000110000001010000 #/
1g/
b1000000000001101111000001100100110100001000110011110000011101010111 N0
#90
b1101111000001100100110100001000110011110000011101010111 ?.
0g/
b1000000001100001010000000000101111000000011100101000000001000011010 N0
#91
b1100001010000000000101111000000011100101000000001000011010 ?.
b10100000000000000000000000000000000000000011001001100000010101000111 N0
#92
b11001001100000010101000111 ?.
0!/
0"/
b1000000000000000000000000000000000000000011001001100000010101000111 N0
071
#93
b1110010100000000100001101000000011001001100000010101000111 ?.
b1000000000101101100000000101110010000000100010011100000010100100011 N0
171
#94
b10001001110000001010010001100000011001001100000010101000111 ?.
1!/
1"/
b1000000010000001010000000101011110100000000100001110000110010110111 N0
#95
b10000111000011001011011100000001011011000000001011100100 ?.
b1000000000101101101000001011000010000001001010111100000001010011010 N0
#96
b100101011110000000101001101000000100000010100000001010111101 ?.
b1000001010011111010110000000010010000000001010000110000001001010 #/
1g/
b1000000011000001010000000101111010100000000000101110000000101011111 N0
#97
b10111000000010101111100000001011011010000010110000100 ?.
0g/
b1000000010010110111000000010110001100000101011001110000000001100100 N0
#98
b10101100111000000000110010000000110000010100000001011110101 ?.
b10100000000000000000000000000000000000000011011010010000000011100100 N0
#99
b1101101001000000001110010000000100101101110000000101100011 ?.
b1000000000000000000000000000000000000000011011010010000000011100100 N0
071
#100
b10010110111000000010110001100000101011001110000000001100100 ?.
0!/
0"/
b1000000010101011111000000101010010100000010010111100000000101000101 N0
171
#101
b10101011111000000101010010100000010010111100000000101000101 ?.
1!/
1"/
b1000000001100101100000000101010010000000001110101100000001010010001 N0
#102
b1100101100000000101010010000000001110101100000001010010001 ?.
b1000000010010001010000001110000011000000100100001110000001000010111 N0
#103
b10010001010000001110000011000000100100001110000001000010111 ?.
b1100000001001101111010000101000001100010010000000110000011011010 #/
1g/
b1000000010000011100000000000000100000000001001010100000000010000100 N0
#104
b10000011100000000000000100000000001001010100000000010000100 ?.
0g/
b1000000000011101110000000010001000100000010010011100000011111111001 N0
#105
b11101110000000010001000100000010010011100000011111111001 ?.
b11000000010000011010000000011010100000000000000101000000001010101010 N0
#106
b10000011010000000011010100000000000000101000000001010101010 ?.
b1000000010000011010000000011010100000000000000101000000001010101010 N0
071
#107
b11101110000000010001000100000010010011100000011111111001 ?.
0!/
0"/
b1000000101001111101000011001110100100000011111110100000001010101100 N0
171
#108
b101001111101000011001110100100000011111110100000001010101100 ?.
1!/
1"/
b1000000001011111011000000110101101100001000011011110000000011001110 N0
#109
b1011111011000000110101101100001000011011110000000011001110 ?.
b1000000100101111101000000010001110000000001101010110000011001101110 N0
#110
b100101111101000000010001110000000001101010110000011001101110 ?.
b1100000001001001100010000101000000100011010010000100000001001010 #/
1g/
b1000000100010001000000000000100110000001100001010000000011110001110 N0
#111
b100010001000000000000100110000001100001010000000011110001110 ?.
0g/
b10100000000000000000000000000000000000000011100011010000001001101000 N0
#112
b11100011010000001001101000 ?.
0!/
0"/
b1000000000000000000000000000000000000000011100011010000001001101000 N0
071
#113
b110000101000000001111000111000000011100011010000001001101000 ?.
b1000000100000001110000001100010010000000000011000100000001110010010 N0
171
#114
b1100010000000111001001000000011100011010000001001101000 ?.
1!/
1"/
b1000000000100000100000001111010101000000101100110110000110100100011 N0
#115
b10110011011000011010010001100001000000011100000011000100100 ?.
b1000000010101000001000000010001101100000000000100100000100001010001 N0
#116
b10010000010000101000100000001000001000000011110101010 ?.
b1100100101000001100100000100100100100100001110010110000011111101 #/
1g/
b1000000100100110101000000100111010100000000101100110000001001010011 N0
#117
b10110011000000100101001100000101010000010000000100011011 ?.
0g/
b1000000100001000011000000100010011000001000010010010000101101101011 N0
#118
b100001001001000010110110101100001001001101010000001001110101 ?.
b11000000001011100101000001000010100000000010101001000000010110100111 N0
#119
b1010100100000001011010011100001000010000110000001000100110 ?.
b1000000001011100101000001000010100000000010101001000000010110100111 N0
071
#120
b100001001001000010110110101100000010111001010000010000101000 ?.
0!/
0"/
b1000000000100010110000000010110000100001001111110010000000111001010 N0
171
#121
b100111111001000000011100101000000010111001010000010000101000 ?.
1!/
1"/
b1000000011010010011000000100101001100000001000000010000000110011100 N0
#122
b100000001000000011001110000000001000101100000000101100001 ?.
b1000000000000100100000010011101101100000010001110100000001011110001 N0
#123
b1000111010000000101111000100000110100100110000001001010011 ?.
b100000100111010000010000100000000100011001001000110100100000000 #/
1g/
b1000000001111011001000000111001001100001000010111000000000001010110 N0
#124
b100001011100000000000101011000000000001001000000100111011011 ?.
0g/
b1000000000101111001000000101001100100001001010110010000011100110000 N0
#125
b100101011001000001110011000000000011110110010000001110010011 ?.
b11000000011001000010000001111011110000000010110000100000001101110010 N0
#126
b1011000010000000110111001000000001011110010000001010011001 ?.
b1000000011001000010000001111011110000000010110000100000001101110010 N0
071
#127
b100101011001000001110011000000000110010000100000011110111100 ?.
0!/
0"/
b1000000001010101011000001001111100000001000110000010000001100010110 N0
171
#128
b100011000001000000110001011000000110010000100000011110111100 ?.
1!/
1"/
b1000000001011010000000000011001100000000000011011100000000110010010 N0
#129
b1101110000000011001001000000010101010110000010011111000 ?.
b1000000001010010001000000111011110100000010110110110000001010001100 N0
#130
b1011011011000000101000110000000010110100000000000110011000 ?.
b1100000000001011010010000101100000000000001000000010100001000100 #/
1g/
b1000000001011101000000000101101011100000010011010100000000010001011 N0
#131
b1001101010000000001000101100000010100100010000001110111101 ?.
0g/
b10110000000000000000000000100100100000000110001100100000000101110111 N0
#132
b11000110010000000010111011100000010111010000000001011010111 ?.
b1000000000000000000000000100100100000000110001100100000000101110111 N0
071
#133
b1011010111000000100110101000000000100010110000001001001000 ?.
0!/
0"/
b1000000001001100001000000011000011100000001001110100000110010100010 N0
171
#134
b110000111000000010011101000001100101000100000001001001000 ?.
1!/
1"/
b1000000011001010011000000101111110000000000010110000000000010111010 N0
#135
b1011111100000000000101100000000000101110100000001001100001 ?.
b1000000000110000110000000101110001000000101000001010000001100010010 N0
#136
b1011100010000001010000010100000011000100100000011001010011 ?.
b11011001000100100000000000001000000110000000000010 #/
1g/
b1000000011001011010000000100000010000000100000101110000000110001000 N0
#137
b1000000100000001000001011100000001100010000000000110000110 ?.
0g/
b11000000011001000111000000010101100000000100011001000000001110101101 N0
#138
b101011000000001000110010000000011101011010000011001011010 ?.
b1000000011001000111000000010101100000000100011001000000001110101101 N0
071
#139
b1000000100000001000001011100000001100010000000011001000111 ?.
0!/
0"/
b1000000000100110011000000001010011100000001111001000000111000110010 N0
171
#140
b10100111000000011110010000001110001100100000011001000111 ?.
1!/
1"/
b1000000000000111110000000101101110000000100001110110000000000001110 N0
#141
b1011011100000001000011101100000000000011100000000100110011 ?.
b1000000010000010110000000000110011000000000001000110000010101111011 N0
#142
b1100110000000000010001100000101011110110000000000111110 ?.
b100000001011110011010000101001000110011010100000010000000010100 #/
1g/
b1000000010001000001000010011111111000000110000111000000001101110010 N0
#143
b100111111110000001100001110000000011011100100000010000010110 ?.
0g/
b1000000011110110101000000010100000000000011000111110000001010001011 N0
#144
b101000000000000110001111100000010100010110000010001000001 ?.
b10110000000000000000000000010100101100000100001000100000010100010111 N0
#145
b101001011000001000010001000000101000101110000011110110101 ?.
b1000000000000000000000000010100101100000100001000100000010100010111 N0
071
#146
b11110110101000000010100000000000011000111110000001010001011 ?.
0!/
0"/
b1000000000101010001000011111010000100001010110101000000010110100111 N0
171
#147
b101010001000011111010000100001010110101000000010110100111 ?.
1!/
1"/
b1000000000010010100000000100000000000000001001110100000110001001001 N0
#148
b10010100000000100000000000000001001110100000110001001001 ?.
b1000000010110011111000000001010110000000110001010010000011000011101 N0
#149
b10110011111000000001010110000000110001010010000011000011101 ?.
b1000000000001010010010000100000000000011001111000110000001000000 #/
1g/
b1000000111011110010000000011000110000000011111101000000000101111000 N0
#150
b111011110010000000011000110000000011111101000000000101111000 ?.
0g/
b10100000000000000000000000000000000000000001010001000000011100000001 N0
#151
b1010001000000011100000001 ?.
0!/
0"/
b1000000000000000000000000000000000000000001010001000000011100000001 N0
071
#152
b1111110100000000010111100000000001010001000000011100000001 ?.
b1000000000110111010000000001000100000000100101001110000001001011000 N0
171
#153
b10010100111000000100101100000000001010001000000011100000001 ?.
1!/
1"/
b1000000100011101110000010100110010000000001110100000000001110001111 N0
#154
b111010000000000111000111100000001101110100000000010001000 ?.
b1000000000011011001000000101001001100010000011001000000001011010110 N0
#155
b1000001100100000000101101011000001000111011100000101001100100 ?.
b1000000000011110111010000100000100000000001000000110100110000100 #/
1g/
b1000000010111110110000000000110001100001010010100000000000111100101 N0
#156
b101001010000000000011110010100000000110110010000001010010011 ?.
0!/
0g/
b1000000000100101010000001010100011100000010010001000000001000001100 N0
#157
b1000000001111010000000000100101001000000000001100100000001010011010 N0
061
#158
1!/
#159
b1001000100000000100000110000000101111101100000000001100011 ?.
0!/
161
#160
b10100000000000000000000000000000000000000100011010100000000111010000 N0
061
#161
1!/
